﻿# Tiled2Unity generated file. Do not modify by hand.
# Wavefront file for 'GetYourSemester_Home_mesh_0005.obj'

# Vertices (Count = 472)
v -256 -96 -0.1363636
v -288 -96 -0.1363636
v -288 -64 -0.1363636
v -256 -64 -0.1363636
v -288 -96 -0.1363636
v -320 -96 -0.1363636
v -320 -64 -0.1363636
v -288 -64 -0.1363636
v -320 -96 -0.1363636
v -352 -96 -0.1363636
v -352 -64 -0.1363636
v -320 -64 -0.1363636
v -352 -96 -0.1363636
v -384 -96 -0.1363636
v -384 -64 -0.1363636
v -352 -64 -0.1363636
v -384 -96 -0.1363636
v -416 -96 -0.1363636
v -416 -64 -0.1363636
v -384 -64 -0.1363636
v -416 -96 -0.1363636
v -448 -96 -0.1363636
v -448 -64 -0.1363636
v -416 -64 -0.1363636
v -448 -96 -0.1363636
v -480 -96 -0.1363636
v -480 -64 -0.1363636
v -448 -64 -0.1363636
v -480 -96 -0.1363636
v -512 -96 -0.1363636
v -512 -64 -0.1363636
v -480 -64 -0.1363636
v -512 -96 -0.1363636
v -544 -96 -0.1363636
v -544 -64 -0.1363636
v -512 -64 -0.1363636
v -544 -96 -0.1363636
v -576 -96 -0.1363636
v -576 -64 -0.1363636
v -544 -64 -0.1363636
v -576 -96 -0.1363636
v -608 -96 -0.1363636
v -608 -64 -0.1363636
v -576 -64 -0.1363636
v -608 -96 -0.1363636
v -640 -96 -0.1363636
v -640 -64 -0.1363636
v -608 -64 -0.1363636
v -640 -96 -0.1363636
v -672 -96 -0.1363636
v -672 -64 -0.1363636
v -640 -64 -0.1363636
v -672 -96 -0.1363636
v -704 -96 -0.1363636
v -704 -64 -0.1363636
v -672 -64 -0.1363636
v -704 -96 -0.1363636
v -736 -96 -0.1363636
v -736 -64 -0.1363636
v -704 -64 -0.1363636
v -736 -96 -0.1363636
v -768 -96 -0.1363636
v -768 -64 -0.1363636
v -736 -64 -0.1363636
v -768 -96 -0.1363636
v -800 -96 -0.1363636
v -800 -64 -0.1363636
v -768 -64 -0.1363636
v -256 -128 -0.1818182
v -288 -128 -0.1818182
v -288 -96 -0.1818182
v -256 -96 -0.1818182
v -288 -128 -0.1818182
v -320 -128 -0.1818182
v -320 -96 -0.1818182
v -288 -96 -0.1818182
v -320 -128 -0.1818182
v -352 -128 -0.1818182
v -352 -96 -0.1818182
v -320 -96 -0.1818182
v -352 -128 -0.1818182
v -384 -128 -0.1818182
v -384 -96 -0.1818182
v -352 -96 -0.1818182
v -384 -128 -0.1818182
v -416 -128 -0.1818182
v -416 -96 -0.1818182
v -384 -96 -0.1818182
v -416 -128 -0.1818182
v -448 -128 -0.1818182
v -448 -96 -0.1818182
v -416 -96 -0.1818182
v -448 -128 -0.1818182
v -480 -128 -0.1818182
v -480 -96 -0.1818182
v -448 -96 -0.1818182
v -480 -128 -0.1818182
v -512 -128 -0.1818182
v -512 -96 -0.1818182
v -480 -96 -0.1818182
v -512 -128 -0.1818182
v -544 -128 -0.1818182
v -544 -96 -0.1818182
v -512 -96 -0.1818182
v -544 -128 -0.1818182
v -576 -128 -0.1818182
v -576 -96 -0.1818182
v -544 -96 -0.1818182
v -576 -128 -0.1818182
v -608 -128 -0.1818182
v -608 -96 -0.1818182
v -576 -96 -0.1818182
v -608 -128 -0.1818182
v -640 -128 -0.1818182
v -640 -96 -0.1818182
v -608 -96 -0.1818182
v -640 -128 -0.1818182
v -672 -128 -0.1818182
v -672 -96 -0.1818182
v -640 -96 -0.1818182
v -672 -128 -0.1818182
v -704 -128 -0.1818182
v -704 -96 -0.1818182
v -672 -96 -0.1818182
v -704 -128 -0.1818182
v -736 -128 -0.1818182
v -736 -96 -0.1818182
v -704 -96 -0.1818182
v -736 -128 -0.1818182
v -768 -128 -0.1818182
v -768 -96 -0.1818182
v -736 -96 -0.1818182
v -768 -128 -0.1818182
v -800 -128 -0.1818182
v -800 -96 -0.1818182
v -768 -96 -0.1818182
v -256 -160 -0.2272727
v -288 -160 -0.2272727
v -288 -128 -0.2272727
v -256 -128 -0.2272727
v -288 -160 -0.2272727
v -320 -160 -0.2272727
v -320 -128 -0.2272727
v -288 -128 -0.2272727
v -320 -160 -0.2272727
v -352 -160 -0.2272727
v -352 -128 -0.2272727
v -320 -128 -0.2272727
v -352 -160 -0.2272727
v -384 -160 -0.2272727
v -384 -128 -0.2272727
v -352 -128 -0.2272727
v -384 -160 -0.2272727
v -416 -160 -0.2272727
v -416 -128 -0.2272727
v -384 -128 -0.2272727
v -416 -160 -0.2272727
v -448 -160 -0.2272727
v -448 -128 -0.2272727
v -416 -128 -0.2272727
v -448 -160 -0.2272727
v -480 -160 -0.2272727
v -480 -128 -0.2272727
v -448 -128 -0.2272727
v -480 -160 -0.2272727
v -512 -160 -0.2272727
v -512 -128 -0.2272727
v -480 -128 -0.2272727
v -512 -160 -0.2272727
v -544 -160 -0.2272727
v -544 -128 -0.2272727
v -512 -128 -0.2272727
v -544 -160 -0.2272727
v -576 -160 -0.2272727
v -576 -128 -0.2272727
v -544 -128 -0.2272727
v -576 -160 -0.2272727
v -608 -160 -0.2272727
v -608 -128 -0.2272727
v -576 -128 -0.2272727
v -608 -160 -0.2272727
v -640 -160 -0.2272727
v -640 -128 -0.2272727
v -608 -128 -0.2272727
v -640 -160 -0.2272727
v -672 -160 -0.2272727
v -672 -128 -0.2272727
v -640 -128 -0.2272727
v -672 -160 -0.2272727
v -704 -160 -0.2272727
v -704 -128 -0.2272727
v -672 -128 -0.2272727
v -704 -160 -0.2272727
v -736 -160 -0.2272727
v -736 -128 -0.2272727
v -704 -128 -0.2272727
v -736 -160 -0.2272727
v -768 -160 -0.2272727
v -768 -128 -0.2272727
v -736 -128 -0.2272727
v -768 -160 -0.2272727
v -800 -160 -0.2272727
v -800 -128 -0.2272727
v -768 -128 -0.2272727
v -64 -224 -0.3181818
v -96 -224 -0.3181818
v -96 -192 -0.3181818
v -64 -192 -0.3181818
v -96 -224 -0.3181818
v -128 -224 -0.3181818
v -128 -192 -0.3181818
v -96 -192 -0.3181818
v -128 -224 -0.3181818
v -160 -224 -0.3181818
v -160 -192 -0.3181818
v -128 -192 -0.3181818
v -160 -224 -0.3181818
v -192 -224 -0.3181818
v -192 -192 -0.3181818
v -160 -192 -0.3181818
v -192 -224 -0.3181818
v -224 -224 -0.3181818
v -224 -192 -0.3181818
v -192 -192 -0.3181818
v -224 -224 -0.3181818
v -256 -224 -0.3181818
v -256 -192 -0.3181818
v -224 -192 -0.3181818
v -64 -256 -0.3636364
v -96 -256 -0.3636364
v -96 -224 -0.3636364
v -64 -224 -0.3636364
v -96 -256 -0.3636364
v -128 -256 -0.3636364
v -128 -224 -0.3636364
v -96 -224 -0.3636364
v -128 -256 -0.3636364
v -160 -256 -0.3636364
v -160 -224 -0.3636364
v -128 -224 -0.3636364
v -160 -256 -0.3636364
v -192 -256 -0.3636364
v -192 -224 -0.3636364
v -160 -224 -0.3636364
v -192 -256 -0.3636364
v -224 -256 -0.3636364
v -224 -224 -0.3636364
v -192 -224 -0.3636364
v -224 -256 -0.3636364
v -256 -256 -0.3636364
v -256 -224 -0.3636364
v -224 -224 -0.3636364
v -800 -256 -0.3636364
v -832 -256 -0.3636364
v -832 -224 -0.3636364
v -800 -224 -0.3636364
v -832 -256 -0.3636364
v -864 -256 -0.3636364
v -864 -224 -0.3636364
v -832 -224 -0.3636364
v -864 -256 -0.3636364
v -896 -256 -0.3636364
v -896 -224 -0.3636364
v -864 -224 -0.3636364
v -896 -256 -0.3636364
v -928 -256 -0.3636364
v -928 -224 -0.3636364
v -896 -224 -0.3636364
v -928 -256 -0.3636364
v -960 -256 -0.3636364
v -960 -224 -0.3636364
v -928 -224 -0.3636364
v -960 -256 -0.3636364
v -992 -256 -0.3636364
v -992 -224 -0.3636364
v -960 -224 -0.3636364
v -992 -256 -0.3636364
v -1024 -256 -0.3636364
v -1024 -224 -0.3636364
v -992 -224 -0.3636364
v -1024 -256 -0.3636364
v -1056 -256 -0.3636364
v -1056 -224 -0.3636364
v -1024 -224 -0.3636364
v -64 -288 -0.4090909
v -96 -288 -0.4090909
v -96 -256 -0.4090909
v -64 -256 -0.4090909
v -96 -288 -0.4090909
v -128 -288 -0.4090909
v -128 -256 -0.4090909
v -96 -256 -0.4090909
v -128 -288 -0.4090909
v -160 -288 -0.4090909
v -160 -256 -0.4090909
v -128 -256 -0.4090909
v -160 -288 -0.4090909
v -192 -288 -0.4090909
v -192 -256 -0.4090909
v -160 -256 -0.4090909
v -192 -288 -0.4090909
v -224 -288 -0.4090909
v -224 -256 -0.4090909
v -192 -256 -0.4090909
v -224 -288 -0.4090909
v -256 -288 -0.4090909
v -256 -256 -0.4090909
v -224 -256 -0.4090909
v -800 -288 -0.4090909
v -832 -288 -0.4090909
v -832 -256 -0.4090909
v -800 -256 -0.4090909
v -832 -288 -0.4090909
v -864 -288 -0.4090909
v -864 -256 -0.4090909
v -832 -256 -0.4090909
v -864 -288 -0.4090909
v -896 -288 -0.4090909
v -896 -256 -0.4090909
v -864 -256 -0.4090909
v -896 -288 -0.4090909
v -928 -288 -0.4090909
v -928 -256 -0.4090909
v -896 -256 -0.4090909
v -928 -288 -0.4090909
v -960 -288 -0.4090909
v -960 -256 -0.4090909
v -928 -256 -0.4090909
v -960 -288 -0.4090909
v -992 -288 -0.4090909
v -992 -256 -0.4090909
v -960 -256 -0.4090909
v -992 -288 -0.4090909
v -1024 -288 -0.4090909
v -1024 -256 -0.4090909
v -992 -256 -0.4090909
v -1024 -288 -0.4090909
v -1056 -288 -0.4090909
v -1056 -256 -0.4090909
v -1024 -256 -0.4090909
v -800 -320 -0.4545455
v -832 -320 -0.4545455
v -832 -288 -0.4545455
v -800 -288 -0.4545455
v -832 -320 -0.4545455
v -864 -320 -0.4545455
v -864 -288 -0.4545455
v -832 -288 -0.4545455
v -864 -320 -0.4545455
v -896 -320 -0.4545455
v -896 -288 -0.4545455
v -864 -288 -0.4545455
v -896 -320 -0.4545455
v -928 -320 -0.4545455
v -928 -288 -0.4545455
v -896 -288 -0.4545455
v -928 -320 -0.4545455
v -960 -320 -0.4545455
v -960 -288 -0.4545455
v -928 -288 -0.4545455
v -960 -320 -0.4545455
v -992 -320 -0.4545455
v -992 -288 -0.4545455
v -960 -288 -0.4545455
v -992 -320 -0.4545455
v -1024 -320 -0.4545455
v -1024 -288 -0.4545455
v -992 -288 -0.4545455
v -1024 -320 -0.4545455
v -1056 -320 -0.4545455
v -1056 -288 -0.4545455
v -1024 -288 -0.4545455
v -800 -480 -0.6818182
v -832 -480 -0.6818182
v -832 -448 -0.6818182
v -800 -448 -0.6818182
v -832 -480 -0.6818182
v -864 -480 -0.6818182
v -864 -448 -0.6818182
v -832 -448 -0.6818182
v -864 -480 -0.6818182
v -896 -480 -0.6818182
v -896 -448 -0.6818182
v -864 -448 -0.6818182
v -896 -480 -0.6818182
v -928 -480 -0.6818182
v -928 -448 -0.6818182
v -896 -448 -0.6818182
v -928 -480 -0.6818182
v -960 -480 -0.6818182
v -960 -448 -0.6818182
v -928 -448 -0.6818182
v -960 -480 -0.6818182
v -992 -480 -0.6818182
v -992 -448 -0.6818182
v -960 -448 -0.6818182
v -992 -480 -0.6818182
v -1024 -480 -0.6818182
v -1024 -448 -0.6818182
v -992 -448 -0.6818182
v -1024 -480 -0.6818182
v -1056 -480 -0.6818182
v -1056 -448 -0.6818182
v -1024 -448 -0.6818182
v -800 -512 -0.7272727
v -832 -512 -0.7272727
v -832 -480 -0.7272727
v -800 -480 -0.7272727
v -832 -512 -0.7272727
v -864 -512 -0.7272727
v -864 -480 -0.7272727
v -832 -480 -0.7272727
v -864 -512 -0.7272727
v -896 -512 -0.7272727
v -896 -480 -0.7272727
v -864 -480 -0.7272727
v -896 -512 -0.7272727
v -928 -512 -0.7272727
v -928 -480 -0.7272727
v -896 -480 -0.7272727
v -928 -512 -0.7272727
v -960 -512 -0.7272727
v -960 -480 -0.7272727
v -928 -480 -0.7272727
v -960 -512 -0.7272727
v -992 -512 -0.7272727
v -992 -480 -0.7272727
v -960 -480 -0.7272727
v -992 -512 -0.7272727
v -1024 -512 -0.7272727
v -1024 -480 -0.7272727
v -992 -480 -0.7272727
v -1024 -512 -0.7272727
v -1056 -512 -0.7272727
v -1056 -480 -0.7272727
v -1024 -480 -0.7272727
v -800 -544 -0.7727273
v -832 -544 -0.7727273
v -832 -512 -0.7727273
v -800 -512 -0.7727273
v -832 -544 -0.7727273
v -864 -544 -0.7727273
v -864 -512 -0.7727273
v -832 -512 -0.7727273
v -864 -544 -0.7727273
v -896 -544 -0.7727273
v -896 -512 -0.7727273
v -864 -512 -0.7727273
v -896 -544 -0.7727273
v -928 -544 -0.7727273
v -928 -512 -0.7727273
v -896 -512 -0.7727273
v -928 -544 -0.7727273
v -960 -544 -0.7727273
v -960 -512 -0.7727273
v -928 -512 -0.7727273
v -960 -544 -0.7727273
v -992 -544 -0.7727273
v -992 -512 -0.7727273
v -960 -512 -0.7727273
v -992 -544 -0.7727273
v -1024 -544 -0.7727273
v -1024 -512 -0.7727273
v -992 -512 -0.7727273
v -1024 -544 -0.7727273
v -1056 -544 -0.7727273
v -1056 -512 -0.7727273
v -1024 -512 -0.7727273
v -256 -640 -0.9090909
v -288 -640 -0.9090909
v -288 -608 -0.9090909
v -256 -608 -0.9090909

# Texture cooridinates (Count = 40)
vt 0.1251221 0.3572649
vt 0.1873779 0.3572649
vt 0.1873779 0.4284493
vt 0.1251221 0.4284493
vt 0.1876221 0.3572649
vt 0.2498779 0.3572649
vt 0.2498779 0.4284493
vt 0.1876221 0.4284493
vt 0.2501221 0.3572649
vt 0.3123779 0.3572649
vt 0.3123779 0.4284493
vt 0.2501221 0.4284493
vt 0.1251221 0.2858363
vt 0.1873779 0.2858363
vt 0.1873779 0.3570208
vt 0.1251221 0.3570208
vt 0.1876221 0.2858363
vt 0.2498779 0.2858363
vt 0.2498779 0.3570208
vt 0.1876221 0.3570208
vt 0.2501221 0.2858363
vt 0.3123779 0.2858363
vt 0.3123779 0.3570208
vt 0.2501221 0.3570208
vt 0.1251221 0.2144078
vt 0.1873779 0.2144078
vt 0.1873779 0.2855922
vt 0.1251221 0.2855922
vt 0.1876221 0.2144078
vt 0.2498779 0.2144078
vt 0.2498779 0.2855922
vt 0.1876221 0.2855922
vt 0.2501221 0.2144078
vt 0.3123779 0.2144078
vt 0.3123779 0.2855922
vt 0.2501221 0.2855922
vt 0.1876221 0.07155067
vt 0.2498779 0.07155067
vt 0.2498779 0.1427351
vt 0.1876221 0.1427351

# Normal
vn 0 0 -1

# Mesh description
g GetYourSemester_Home_mesh_0005

# Faces
f 1/1/1 2/2/1 3/3/1 4/4/1
f 5/5/1 6/6/1 7/7/1 8/8/1
f 9/5/1 10/6/1 11/7/1 12/8/1
f 13/5/1 14/6/1 15/7/1 16/8/1
f 17/5/1 18/6/1 19/7/1 20/8/1
f 21/5/1 22/6/1 23/7/1 24/8/1
f 25/5/1 26/6/1 27/7/1 28/8/1
f 29/5/1 30/6/1 31/7/1 32/8/1
f 33/5/1 34/6/1 35/7/1 36/8/1
f 37/5/1 38/6/1 39/7/1 40/8/1
f 41/5/1 42/6/1 43/7/1 44/8/1
f 45/5/1 46/6/1 47/7/1 48/8/1
f 49/5/1 50/6/1 51/7/1 52/8/1
f 53/5/1 54/6/1 55/7/1 56/8/1
f 57/5/1 58/6/1 59/7/1 60/8/1
f 61/5/1 62/6/1 63/7/1 64/8/1
f 65/9/1 66/10/1 67/11/1 68/12/1
f 69/13/1 70/14/1 71/15/1 72/16/1
f 73/17/1 74/18/1 75/19/1 76/20/1
f 77/17/1 78/18/1 79/19/1 80/20/1
f 81/17/1 82/18/1 83/19/1 84/20/1
f 85/17/1 86/18/1 87/19/1 88/20/1
f 89/17/1 90/18/1 91/19/1 92/20/1
f 93/17/1 94/18/1 95/19/1 96/20/1
f 97/17/1 98/18/1 99/19/1 100/20/1
f 101/17/1 102/18/1 103/19/1 104/20/1
f 105/17/1 106/18/1 107/19/1 108/20/1
f 109/17/1 110/18/1 111/19/1 112/20/1
f 113/17/1 114/18/1 115/19/1 116/20/1
f 117/17/1 118/18/1 119/19/1 120/20/1
f 121/17/1 122/18/1 123/19/1 124/20/1
f 125/17/1 126/18/1 127/19/1 128/20/1
f 129/17/1 130/18/1 131/19/1 132/20/1
f 133/21/1 134/22/1 135/23/1 136/24/1
f 137/25/1 138/26/1 139/27/1 140/28/1
f 141/29/1 142/30/1 143/31/1 144/32/1
f 145/29/1 146/30/1 147/31/1 148/32/1
f 149/29/1 150/30/1 151/31/1 152/32/1
f 153/29/1 154/30/1 155/31/1 156/32/1
f 157/29/1 158/30/1 159/31/1 160/32/1
f 161/29/1 162/30/1 163/31/1 164/32/1
f 165/29/1 166/30/1 167/31/1 168/32/1
f 169/29/1 170/30/1 171/31/1 172/32/1
f 173/29/1 174/30/1 175/31/1 176/32/1
f 177/29/1 178/30/1 179/31/1 180/32/1
f 181/29/1 182/30/1 183/31/1 184/32/1
f 185/29/1 186/30/1 187/31/1 188/32/1
f 189/29/1 190/30/1 191/31/1 192/32/1
f 193/29/1 194/30/1 195/31/1 196/32/1
f 197/29/1 198/30/1 199/31/1 200/32/1
f 201/33/1 202/34/1 203/35/1 204/36/1
f 205/1/1 206/2/1 207/3/1 208/4/1
f 209/5/1 210/6/1 211/7/1 212/8/1
f 213/5/1 214/6/1 215/7/1 216/8/1
f 217/5/1 218/6/1 219/7/1 220/8/1
f 221/5/1 222/6/1 223/7/1 224/8/1
f 225/9/1 226/10/1 227/11/1 228/12/1
f 229/13/1 230/14/1 231/15/1 232/16/1
f 233/17/1 234/18/1 235/19/1 236/20/1
f 237/17/1 238/18/1 239/19/1 240/20/1
f 241/17/1 242/18/1 243/19/1 244/20/1
f 245/17/1 246/18/1 247/19/1 248/20/1
f 249/21/1 250/22/1 251/23/1 252/24/1
f 253/1/1 254/2/1 255/3/1 256/4/1
f 257/5/1 258/6/1 259/7/1 260/8/1
f 261/5/1 262/6/1 263/7/1 264/8/1
f 265/5/1 266/6/1 267/7/1 268/8/1
f 269/5/1 270/6/1 271/7/1 272/8/1
f 273/5/1 274/6/1 275/7/1 276/8/1
f 277/5/1 278/6/1 279/7/1 280/8/1
f 281/9/1 282/10/1 283/11/1 284/12/1
f 285/25/1 286/26/1 287/27/1 288/28/1
f 289/29/1 290/30/1 291/31/1 292/32/1
f 293/29/1 294/30/1 295/31/1 296/32/1
f 297/29/1 298/30/1 299/31/1 300/32/1
f 301/29/1 302/30/1 303/31/1 304/32/1
f 305/33/1 306/34/1 307/35/1 308/36/1
f 309/13/1 310/14/1 311/15/1 312/16/1
f 313/17/1 314/18/1 315/19/1 316/20/1
f 317/17/1 318/18/1 319/19/1 320/20/1
f 321/17/1 322/18/1 323/19/1 324/20/1
f 325/17/1 326/18/1 327/19/1 328/20/1
f 329/17/1 330/18/1 331/19/1 332/20/1
f 333/17/1 334/18/1 335/19/1 336/20/1
f 337/21/1 338/22/1 339/23/1 340/24/1
f 341/25/1 342/26/1 343/27/1 344/28/1
f 345/29/1 346/30/1 347/31/1 348/32/1
f 349/29/1 350/30/1 351/31/1 352/32/1
f 353/29/1 354/30/1 355/31/1 356/32/1
f 357/29/1 358/30/1 359/31/1 360/32/1
f 361/29/1 362/30/1 363/31/1 364/32/1
f 365/29/1 366/30/1 367/31/1 368/32/1
f 369/33/1 370/34/1 371/35/1 372/36/1
f 373/1/1 374/2/1 375/3/1 376/4/1
f 377/5/1 378/6/1 379/7/1 380/8/1
f 381/5/1 382/6/1 383/7/1 384/8/1
f 385/5/1 386/6/1 387/7/1 388/8/1
f 389/5/1 390/6/1 391/7/1 392/8/1
f 393/5/1 394/6/1 395/7/1 396/8/1
f 397/5/1 398/6/1 399/7/1 400/8/1
f 401/9/1 402/10/1 403/11/1 404/12/1
f 405/13/1 406/14/1 407/15/1 408/16/1
f 409/17/1 410/18/1 411/19/1 412/20/1
f 413/17/1 414/18/1 415/19/1 416/20/1
f 417/17/1 418/18/1 419/19/1 420/20/1
f 421/17/1 422/18/1 423/19/1 424/20/1
f 425/17/1 426/18/1 427/19/1 428/20/1
f 429/17/1 430/18/1 431/19/1 432/20/1
f 433/21/1 434/22/1 435/23/1 436/24/1
f 437/25/1 438/26/1 439/27/1 440/28/1
f 441/29/1 442/30/1 443/31/1 444/32/1
f 445/29/1 446/30/1 447/31/1 448/32/1
f 449/29/1 450/30/1 451/31/1 452/32/1
f 453/29/1 454/30/1 455/31/1 456/32/1
f 457/29/1 458/30/1 459/31/1 460/32/1
f 461/29/1 462/30/1 463/31/1 464/32/1
f 465/33/1 466/34/1 467/35/1 468/36/1
f 469/37/1 470/38/1 471/39/1 472/40/1

