﻿# Tiled2Unity generated file. Do not modify by hand.
# Wavefront file for 'adiil_mesh_0005.obj'

# Vertices (Count = 24)
v -6.4 -3.84 0
v -6.72 -3.84 0
v -6.72 -3.52 0
v -6.4 -3.52 0
v -6.4 -4.16 0
v -6.72 -4.16 0
v -6.72 -3.84 0
v -6.4 -3.84 0
v -4.8 -4.8 0
v -5.12 -4.8 0
v -5.12 -4.48 0
v -4.8 -4.48 0
v -6.4 -7.04 0
v -6.72 -7.04 0
v -6.72 -6.72 0
v -6.4 -6.72 0
v -3.84 -7.36 0
v -4.16 -7.36 0
v -4.16 -7.04 0
v -3.84 -7.04 0
v -6.4 -7.36 0
v -6.72 -7.36 0
v -6.72 -7.04 0
v -6.4 -7.04 0

# Texture cooridinates (Count = 24)
vt 0.0001220703 0.3126221
vt 0.06237793 0.3126221
vt 0.06237793 0.3748779
vt 0.0001220703 0.3748779
vt 0.0001220703 0.2501221
vt 0.06237793 0.2501221
vt 0.06237793 0.3123779
vt 0.0001220703 0.3123779
vt 0.1251221 0.3751221
vt 0.1873779 0.3751221
vt 0.1873779 0.4373779
vt 0.1251221 0.4373779
vt 0.0001220703 0.4376221
vt 0.06237793 0.4376221
vt 0.06237793 0.4998779
vt 0.0001220703 0.4998779
vt 0.1251221 0.4376221
vt 0.1873779 0.4376221
vt 0.1873779 0.4998779
vt 0.1251221 0.4998779
vt 0.0001220703 0.3751221
vt 0.06237793 0.3751221
vt 0.06237793 0.4373779
vt 0.0001220703 0.4373779

# Normal
vn 0 0 -1

# Mesh description
g adiil_mesh_0005

# Faces
f 1/1/1 2/2/1 3/3/1 4/4/1
f 5/5/1 6/6/1 7/7/1 8/8/1
f 9/9/1 10/10/1 11/11/1 12/12/1
f 13/13/1 14/14/1 15/15/1 16/16/1
f 17/17/1 18/18/1 19/19/1 20/20/1
f 21/21/1 22/22/1 23/23/1 24/24/1

