﻿# Tiled2Unity generated file. Do not modify by hand.
# Wavefront file for 'GetYourSemester_TD2_mesh_0009.obj'

# Vertices (Count = 20)
v -64 -128 -0.25
v -96 -128 -0.25
v -96 -96 -0.25
v -64 -96 -0.25
v -96 -128 -0.25
v -128 -128 -0.25
v -128 -96 -0.25
v -96 -96 -0.25
v -544 -128 -0.25
v -576 -128 -0.25
v -576 -96 -0.25
v -544 -96 -0.25
v -576 -128 -0.25
v -608 -128 -0.25
v -608 -96 -0.25
v -576 -96 -0.25
v -608 -416 -0.8125
v -640 -416 -0.8125
v -640 -384 -0.8125
v -608 -384 -0.8125

# Texture cooridinates (Count = 8)
vt 0.8126221 0.4376221
vt 0.8748779 0.4376221
vt 0.8748779 0.4998779
vt 0.8126221 0.4998779
vt 0.6251221 0.9376221
vt 0.6873779 0.9376221
vt 0.6873779 0.9998779
vt 0.6251221 0.9998779

# Normal
vn 0 0 -1

# Mesh description
g GetYourSemester_TD2_mesh_0009

# Faces
f 1/1/1 2/2/1 3/3/1 4/4/1
f 5/1/1 6/2/1 7/3/1 8/4/1
f 9/1/1 10/2/1 11/3/1 12/4/1
f 13/1/1 14/2/1 15/3/1 16/4/1
f 17/5/1 18/6/1 19/7/1 20/8/1

