﻿# Tiled2Unity generated file. Do not modify by hand.
# Wavefront file for 'GetYourSemester_TD2_mesh_0008.obj'

# Vertices (Count = 52)
v -128 -256 -0.5
v -160 -256 -0.5
v -160 -224 -0.5
v -128 -224 -0.5
v -160 -256 -0.5
v -192 -256 -0.5
v -192 -224 -0.5
v -160 -224 -0.5
v -288 -256 -0.5
v -320 -256 -0.5
v -320 -224 -0.5
v -288 -224 -0.5
v -320 -256 -0.5
v -352 -256 -0.5
v -352 -224 -0.5
v -320 -224 -0.5
v -448 -256 -0.5
v -480 -256 -0.5
v -480 -224 -0.5
v -448 -224 -0.5
v -480 -256 -0.5
v -512 -256 -0.5
v -512 -224 -0.5
v -480 -224 -0.5
v -128 -416 -0.8125
v -160 -416 -0.8125
v -160 -384 -0.8125
v -128 -384 -0.8125
v -160 -416 -0.8125
v -192 -416 -0.8125
v -192 -384 -0.8125
v -160 -384 -0.8125
v -288 -416 -0.8125
v -320 -416 -0.8125
v -320 -384 -0.8125
v -288 -384 -0.8125
v -320 -416 -0.8125
v -352 -416 -0.8125
v -352 -384 -0.8125
v -320 -384 -0.8125
v -448 -416 -0.8125
v -480 -416 -0.8125
v -480 -384 -0.8125
v -448 -384 -0.8125
v -480 -416 -0.8125
v -512 -416 -0.8125
v -512 -384 -0.8125
v -480 -384 -0.8125
v -608 -448 -0.875
v -640 -448 -0.875
v -640 -416 -0.875
v -608 -416 -0.875

# Texture cooridinates (Count = 4)
vt 0.6876221 0.3572649
vt 0.7498779 0.3572649
vt 0.7498779 0.4284493
vt 0.6876221 0.4284493

# Normal
vn 0 0 -1

# Mesh description
g GetYourSemester_TD2_mesh_0008

# Faces
f 1/1/1 2/2/1 3/3/1 4/4/1
f 5/1/1 6/2/1 7/3/1 8/4/1
f 9/1/1 10/2/1 11/3/1 12/4/1
f 13/1/1 14/2/1 15/3/1 16/4/1
f 17/1/1 18/2/1 19/3/1 20/4/1
f 21/1/1 22/2/1 23/3/1 24/4/1
f 25/1/1 26/2/1 27/3/1 28/4/1
f 29/1/1 30/2/1 31/3/1 32/4/1
f 33/1/1 34/2/1 35/3/1 36/4/1
f 37/1/1 38/2/1 39/3/1 40/4/1
f 41/1/1 42/2/1 43/3/1 44/4/1
f 45/1/1 46/2/1 47/3/1 48/4/1
f 49/1/1 50/2/1 51/3/1 52/4/1

