﻿# Tiled2Unity generated file. Do not modify by hand.
# Wavefront file for 'GetYourSemester_TD2_mesh_0002.obj'

# Vertices (Count = 32)
v -480 -480 -0.9375
v -512 -480 -0.9375
v -512 -448 -0.9375
v -480 -448 -0.9375
v -512 -480 -0.9375
v -544 -480 -0.9375
v -544 -448 -0.9375
v -512 -448 -0.9375
v -544 -480 -0.9375
v -576 -480 -0.9375
v -576 -448 -0.9375
v -544 -448 -0.9375
v -576 -480 -0.9375
v -608 -480 -0.9375
v -608 -448 -0.9375
v -576 -448 -0.9375
v -480 -512 -1
v -512 -512 -1
v -512 -480 -1
v -480 -480 -1
v -512 -512 -1
v -544 -512 -1
v -544 -480 -1
v -512 -480 -1
v -544 -512 -1
v -576 -512 -1
v -576 -480 -1
v -544 -480 -1
v -576 -512 -1
v -608 -512 -1
v -608 -480 -1
v -576 -480 -1

# Texture cooridinates (Count = 4)
vt 0.6876221 0.1429792
vt 0.7498779 0.1429792
vt 0.7498779 0.2141637
vt 0.6876221 0.2141637

# Normal
vn 0 0 -1

# Mesh description
g GetYourSemester_TD2_mesh_0002

# Faces
f 1/1/1 2/2/1 3/3/1 4/4/1
f 5/1/1 6/2/1 7/3/1 8/4/1
f 9/1/1 10/2/1 11/3/1 12/4/1
f 13/1/1 14/2/1 15/3/1 16/4/1
f 17/1/1 18/2/1 19/3/1 20/4/1
f 21/1/1 22/2/1 23/3/1 24/4/1
f 25/1/1 26/2/1 27/3/1 28/4/1
f 29/1/1 30/2/1 31/3/1 32/4/1

