﻿# Tiled2Unity generated file. Do not modify by hand.
# Wavefront file for 'Etage1_mesh_0006.obj'

# Vertices (Count = 8)
v -3.2 -1.28 0
v -3.52 -1.28 0
v -3.52 -0.96 0
v -3.2 -0.96 0
v -3.52 -1.28 0
v -3.84 -1.28 0
v -3.84 -0.96 0
v -3.52 -0.96 0

# Texture cooridinates (Count = 8)
vt 0.7188721 0.7813721
vt 0.7498779 0.7813721
vt 0.7498779 0.8123779
vt 0.7188721 0.8123779
vt 0.7501221 0.7813721
vt 0.7811279 0.7813721
vt 0.7811279 0.8123779
vt 0.7501221 0.8123779

# Normal
vn 0 0 -1

# Mesh description
g Etage1_mesh_0006

# Faces
f 1/1/1 2/2/1 3/3/1 4/4/1
f 5/5/1 6/6/1 7/7/1 8/8/1

