﻿# Tiled2Unity generated file. Do not modify by hand.
# Wavefront file for 'Etage1_mesh_0015.obj'

# Vertices (Count = 16)
v -11.84 -0.96 0
v -12.16 -0.96 0
v -12.16 -0.64 0
v -11.84 -0.64 0
v -12.16 -0.96 0
v -12.48 -0.96 0
v -12.48 -0.64 0
v -12.16 -0.64 0
v -11.84 -1.28 0
v -12.16 -1.28 0
v -12.16 -0.96 0
v -11.84 -0.96 0
v -12.16 -1.28 0
v -12.48 -1.28 0
v -12.48 -0.96 0
v -12.16 -0.96 0

# Texture cooridinates (Count = 8)
vt 0.6876221 0.07155067
vt 0.7498779 0.07155067
vt 0.7498779 0.1427351
vt 0.6876221 0.1427351
vt 0.6876221 0.0001220703
vt 0.7498779 0.0001220703
vt 0.7498779 0.07130653
vt 0.6876221 0.07130653

# Normal
vn 0 0 -1

# Mesh description
g Etage1_mesh_0015

# Faces
f 1/1/1 2/2/1 3/3/1 4/4/1
f 5/1/1 6/2/1 7/3/1 8/4/1
f 9/5/1 10/6/1 11/7/1 12/8/1
f 13/5/1 14/6/1 15/7/1 16/8/1

