﻿# Tiled2Unity generated file. Do not modify by hand.
# Wavefront file for 'Etage1_mesh_0019.obj'

# Vertices (Count = 4)
v -8.96 -2.56 0
v -9.28 -2.56 0
v -9.28 -2.24 0
v -8.96 -2.24 0

# Texture cooridinates (Count = 4)
vt 0.9376221 0.9376221
vt 0.9998779 0.9376221
vt 0.9998779 0.9998779
vt 0.9376221 0.9998779

# Normal
vn 0 0 -1

# Mesh description
g Etage1_mesh_0019

# Faces
f 1/1/1 2/2/1 3/3/1 4/4/1

