﻿# Tiled2Unity generated file. Do not modify by hand.
# Wavefront file for 'GetYourSemester_Toilettes_mesh_0006.obj'

# Vertices (Count = 8)
v -224 -320 -0.7692308
v -256 -320 -0.7692308
v -256 -288 -0.7692308
v -224 -288 -0.7692308
v -224 -352 -0.8461539
v -256 -352 -0.8461539
v -256 -320 -0.8461539
v -224 -320 -0.8461539

# Texture cooridinates (Count = 8)
vt 0.1876221 0.9286935
vt 0.2498779 0.9286935
vt 0.2498779 0.9998779
vt 0.1876221 0.9998779
vt 0.1876221 0.8572649
vt 0.2498779 0.8572649
vt 0.2498779 0.9284493
vt 0.1876221 0.9284493

# Normal
vn 0 0 -1

# Mesh description
g GetYourSemester_Toilettes_mesh_0006

# Faces
f 1/1/1 2/2/1 3/3/1 4/4/1
f 5/5/1 6/6/1 7/7/1 8/8/1

