﻿# Tiled2Unity generated file. Do not modify by hand.
# Wavefront file for 'GetYourSemester_Toilettes_mesh_0004.obj'

# Vertices (Count = 72)
v -64 -128 -0.3076923
v -96 -128 -0.3076923
v -96 -96 -0.3076923
v -64 -96 -0.3076923
v -96 -128 -0.3076923
v -128 -128 -0.3076923
v -128 -96 -0.3076923
v -96 -96 -0.3076923
v -128 -128 -0.3076923
v -160 -128 -0.3076923
v -160 -96 -0.3076923
v -128 -96 -0.3076923
v -160 -128 -0.3076923
v -192 -128 -0.3076923
v -192 -96 -0.3076923
v -160 -96 -0.3076923
v -192 -128 -0.3076923
v -224 -128 -0.3076923
v -224 -96 -0.3076923
v -192 -96 -0.3076923
v -224 -128 -0.3076923
v -256 -128 -0.3076923
v -256 -96 -0.3076923
v -224 -96 -0.3076923
v -64 -160 -0.3846154
v -96 -160 -0.3846154
v -96 -128 -0.3846154
v -64 -128 -0.3846154
v -96 -160 -0.3846154
v -128 -160 -0.3846154
v -128 -128 -0.3846154
v -96 -128 -0.3846154
v -128 -160 -0.3846154
v -160 -160 -0.3846154
v -160 -128 -0.3846154
v -128 -128 -0.3846154
v -160 -160 -0.3846154
v -192 -160 -0.3846154
v -192 -128 -0.3846154
v -160 -128 -0.3846154
v -192 -160 -0.3846154
v -224 -160 -0.3846154
v -224 -128 -0.3846154
v -192 -128 -0.3846154
v -224 -160 -0.3846154
v -256 -160 -0.3846154
v -256 -128 -0.3846154
v -224 -128 -0.3846154
v -64 -192 -0.4615385
v -96 -192 -0.4615385
v -96 -160 -0.4615385
v -64 -160 -0.4615385
v -96 -192 -0.4615385
v -128 -192 -0.4615385
v -128 -160 -0.4615385
v -96 -160 -0.4615385
v -128 -192 -0.4615385
v -160 -192 -0.4615385
v -160 -160 -0.4615385
v -128 -160 -0.4615385
v -160 -192 -0.4615385
v -192 -192 -0.4615385
v -192 -160 -0.4615385
v -160 -160 -0.4615385
v -192 -192 -0.4615385
v -224 -192 -0.4615385
v -224 -160 -0.4615385
v -192 -160 -0.4615385
v -224 -192 -0.4615385
v -256 -192 -0.4615385
v -256 -160 -0.4615385
v -224 -160 -0.4615385

# Texture cooridinates (Count = 12)
vt 0.7188721 0.6251221
vt 0.7498779 0.6251221
vt 0.7498779 0.6561279
vt 0.7188721 0.6561279
vt 0.7188721 0.5938721
vt 0.7498779 0.5938721
vt 0.7498779 0.6248779
vt 0.7188721 0.6248779
vt 0.7188721 0.5626221
vt 0.7498779 0.5626221
vt 0.7498779 0.5936279
vt 0.7188721 0.5936279

# Normal
vn 0 0 -1

# Mesh description
g GetYourSemester_Toilettes_mesh_0004

# Faces
f 1/1/1 2/2/1 3/3/1 4/4/1
f 5/1/1 6/2/1 7/3/1 8/4/1
f 9/1/1 10/2/1 11/3/1 12/4/1
f 13/1/1 14/2/1 15/3/1 16/4/1
f 17/1/1 18/2/1 19/3/1 20/4/1
f 21/1/1 22/2/1 23/3/1 24/4/1
f 25/5/1 26/6/1 27/7/1 28/8/1
f 29/5/1 30/6/1 31/7/1 32/8/1
f 33/5/1 34/6/1 35/7/1 36/8/1
f 37/5/1 38/6/1 39/7/1 40/8/1
f 41/5/1 42/6/1 43/7/1 44/8/1
f 45/5/1 46/6/1 47/7/1 48/8/1
f 49/9/1 50/10/1 51/11/1 52/12/1
f 53/9/1 54/10/1 55/11/1 56/12/1
f 57/9/1 58/10/1 59/11/1 60/12/1
f 61/9/1 62/10/1 63/11/1 64/12/1
f 65/9/1 66/10/1 67/11/1 68/12/1
f 69/9/1 70/10/1 71/11/1 72/12/1

