﻿# Tiled2Unity generated file. Do not modify by hand.
# Wavefront file for 'reunion_mesh_0007.obj'

# Vertices (Count = 4)
v -3.2 -10.24 0
v -3.52 -10.24 0
v -3.52 -9.92 0
v -3.2 -9.92 0

# Texture cooridinates (Count = 4)
vt 0.06262207 0.8126221
vt 0.1248779 0.8126221
vt 0.1248779 0.8748779
vt 0.06262207 0.8748779

# Normal
vn 0 0 -1

# Mesh description
g reunion_mesh_0007

# Faces
f 1/1/1 2/2/1 3/3/1 4/4/1

